2 0.153981 0.428125 0.078454 0.047917
3 0.366511 0.438542 0.021077 0.060417
3 0.320258 0.436458 0.012881 0.052083
2 0.289813 0.429167 0.043326 0.029167
0 0.282787 0.398958 0.141686 0.027083
2 0.413934 0.430208 0.059719 0.043750
1 0.500000 0.405208 0.070258 0.031250
3 0.555621 0.418750 0.008197 0.025000
3 0.608314 0.428125 0.015222 0.047917
1 0.738876 0.428125 0.128806 0.089583
0 0.866511 0.414583 0.131148 0.083333
2 0.653981 0.431250 0.050351 0.058333
