3 0.035129 0.547917 0.067916 0.270833
3 0.110070 0.471875 0.037471 0.122917
2 0.175059 0.445833 0.097190 0.058333
0 0.151054 0.395833 0.234192 0.050000
3 0.368267 0.421875 0.015222 0.031250
3 0.398126 0.415625 0.009368 0.035417
1 0.501756 0.407292 0.080796 0.035417
2 0.609485 0.451042 0.099532 0.064583
3 0.737705 0.468750 0.035129 0.116667
2 0.828454 0.450000 0.127635 0.087500
1 0.947307 0.443750 0.105386 0.187500
