2 0.153396 0.427083 0.086651 0.050000
0 0.278103 0.400000 0.137002 0.033333
3 0.367681 0.441667 0.018735 0.070833
3 0.320258 0.436458 0.015222 0.056250
2 0.293326 0.429167 0.040984 0.029167
2 0.412763 0.427083 0.052693 0.045833
1 0.500585 0.405208 0.069087 0.039583
3 0.554450 0.418750 0.015222 0.037500
3 0.606557 0.432292 0.014052 0.052083
2 0.651639 0.429167 0.040984 0.045833
1 0.735363 0.425000 0.119438 0.083333
0 0.869438 0.420833 0.132319 0.087500
